{
    "getById":"SELECT * FROM [Applicant] WHERE Id=@Id",
    "getByIC":"SELECT * FROM [Applicant] WHERE IC=@IC",
    "getByPassport":"SELECT * FROM [Applicant] WHERE Passport=@Passport",
    "UpdateEmpIdByIC":"UPDATE [Applicant] SET EmpId=@EmpId WHERE IC=@IC",
    "UpdateEmpIdByPassport":"UPDATE [Applicant] SET EmpId=@EmpId WHERE Passport=@Passport",
    "UpdateEmpIdByIcPassport":"UPDATE [Applicant] SET EmpId=@EmpId WHERE  IC=@IC AND Passport=@Passport"
}